Divorce Descriptives
…
## # A tibble: 24 x 5
## # Groups:   country [12]
##    country cohort   divrate count      se
##    <chr>   <fct>      <dbl> <int>   <dbl>
##  1 AT      pre '65  0.07      200 0.0181 
##  2 AT      post '65 0.0596   1578 0.00596
##  3 BG      pre '65  0.00382  3665 0.00102
##  4 BG      post '65 0.0152   2043 0.00271
##  5 CZ      pre '65  0.00182  1097 0.00129
##  6 CZ      post '65 0         502 0      
##  7 DE      pre '65  0.0163   1533 0.00324
##  8 DE      post '65 0.0582    464 0.0109 
##  9 FR      pre '65  0.0185   2384 0.00276
## 10 FR      post '65 0.0423    921 0.00664
## #  with 14 more rows
…
